Problem set 6
…
ev <- ev |>
  rename(state = X2, electoral_votes = X3) |> 
  slice(-1) |>
  select(-X1)|>
  mutate(electoral_votes = as.numeric(electoral_votes))

additional_votes <- tibble(
  state = c("Maine CD-1", "Maine CD-2", "Nebraska CD-2", "District of Columbia"),
  electoral_votes = c(1, 1, 1, 3)
)
ev <- ev |> bind_rows(additional_votes)

ev

# A tibble: 54 × 2
   state          electoral_votes
   <chr>                    <dbl>
 1 California                  54
 2 Texas                       40
 3 Florida                     30
 4 New York                    28
 5 Illinois                    19
 6 Pennsylvania                19
 7 Ohio                        17
 8 Georgia                     16
 9 North Carolina              16
10 Michigan                    15
# ℹ 44 more rows
…
results <- results |>
  left_join(ev, by = "state")

results

# A tibble: 45 × 5
   state          avg      sd     n electoral_votes
   <chr>        <dbl>   <dbl> <int>           <dbl>
 1 Alaska     -0.093   0.0113     3               3
 2 Arizona    -0.0203  0.0260    82              11
 3 California  0.238   0.0784     6              54
 4 Colorado    0.124   0.0196     5              10
 5 Delaware    0.17   NA          1               3
 6 Florida    -0.0526  0.0276    35              30
 7 Georgia    -0.0155  0.0248    72              16
 8 Indiana    -0.136   0.0509     2              11
 9 Iowa       -0.0753  0.0136     3               6
10 Kansas     -0.05   NA          1               6
# ℹ 35 more rows
…
